{
	"format_version": "1.12.0",
	"minecraft:geometry": [
		{
			"description": {
				"identifier": "geometry.wooloo",
				"texture_width": 64,
				"texture_height": 64,
				"visible_bounds_width": 3,
				"visible_bounds_height": 2.5,
				"visible_bounds_offset": [0, 0.75, 0]
			},
			"bones": [
				{
					"name": "wooloo",
					"pivot": [0, 0, 0]
				},
				{
					"name": "body",
					"parent": "wooloo",
					"pivot": [0, 0, 0]
				},
				{
					"name": "torso",
					"parent": "body",
					"pivot": [0, 8.5, 3.75],
					"cubes": [
						{"origin": [-3, 6.75, 0], "size": [6, 6, 6], "uv": [24, 26]},
						{"origin": [-3, 6.75, -5], "size": [6, 6, 6], "inflate": 0.01, "uv": [0, 26]}
					]
				},
				{
					"name": "wool",
					"parent": "torso",
					"pivot": [6.5, 2.75, -5],
					"cubes": [
						{"origin": [-6.5, 2.75, -5.5], "size": [13, 13, 13], "inflate": 0.02, "uv": [0, 0]}
					]
				},
				{
					"name": "tail",
					"parent": "torso",
					"pivot": [0, 8.25, 6],
					"rotation": [-15, 0, 0],
					"cubes": [
						{"origin": [-0.5, 7.75, 5.75], "size": [1, 1, 2], "inflate": 0.01, "uv": [0, 53]}
					]
				},
				{
					"name": "tail2",
					"parent": "tail",
					"pivot": [0, 7.75, 7.75],
					"rotation": [30, 0, 0],
					"cubes": [
						{"origin": [-0.5, 7.75, 7.75], "size": [1, 1, 2], "uv": [6, 53]}
					]
				},
				{
					"name": "neck",
					"parent": "torso",
					"pivot": [0, 8.65, -1.5],
					"cubes": [
						{"origin": [-2, 8.65, -5.5], "size": [4, 4, 4], "inflate": 0.01, "uv": [8, 56]}
					]
				},
				{
					"name": "head",
					"parent": "torso",
					"pivot": [0.1, 10.75, -5],
					"cubes": [
						{"origin": [-2.5, 8.75, -10.5], "size": [5, 4, 6], "uv": [0, 39]},
						{"origin": [-1, 10, -10.5], "size": [2, 1, 0], "inflate": 0.01, "uv": [0, 30]},
						{"origin": [-1.9, 12.75, -8.25], "size": [1, 2, 1], "pivot": [-1.9, 12.75, -7.25], "rotation": [0, -5, -5], "uv": [39, 0]},
						{"origin": [0.9, 12.75, -8.25], "size": [1, 2, 1], "pivot": [1.9, 12.75, -7.25], "rotation": [0, 5, 5], "uv": [9, 0]}
					]
				},
				{
					"name": "eyes",
					"parent": "head",
					"pivot": [-0.15, 10.75, -9]
				},
				{
					"name": "eye_right",
					"parent": "eyes",
					"pivot": [-3.6, 10, -8.5],
					"cubes": [
						{"origin": [-2.51, 9.75, -9.5], "size": [0, 2, 1], "uv": [18, 25], "mirror": true},
						{"origin": [-2.401, 9.75, -9.5], "size": [0, 2, 1], "inflate": 0.1, "uv": [0, 0], "mirror": true},
						{"origin": [-2.52, 10.25, -9.5], "size": [0, 1, 1], "uv": [8, 9], "mirror": true}
					]
				},
				{
					"name": "eyelid_right",
					"parent": "eye_right",
					"pivot": [-1.82, 10.75, -9],
					"cubes": [
						{"origin": [-2.32, 9.75, -9.5], "size": [1, 2, 1], "inflate": 0.11, "uv": [54, 39]}
					]
				},
				{
					"name": "eye_left",
					"parent": "eyes",
					"pivot": [3.75, 10, -8.5],
					"cubes": [
						{"origin": [2.51, 9.75, -9.5], "size": [0, 2, 1], "uv": [24, 25], "mirror": true},
						{"origin": [2.402, 9.75, -9.5], "size": [0, 2, 1], "inflate": 0.1, "uv": [0, 7], "mirror": true},
						{"origin": [2.52, 10.25, -9.5], "size": [0, 1, 1], "uv": [8, 10], "mirror": true}
					]
				},
				{
					"name": "eyelid_left",
					"parent": "eye_left",
					"pivot": [1.82, 10.75, -9],
					"cubes": [
						{"origin": [1.32, 9.75, -9.5], "size": [1, 2, 1], "inflate": 0.11, "uv": [52, 36], "mirror": true}
					]
				},
				{
					"name": "mouth_open",
					"parent": "head",
					"pivot": [-0.05, 10, -9.5],
					"cubes": [
						{"origin": [-1.05, 8.75, -10.41], "size": [2, 1, 0], "uv": [8, 12]}
					]
				},
				{
					"name": "head_wool",
					"parent": "head",
					"pivot": [-2.3928, 13.73889, -6.69372],
					"cubes": [
						{"origin": [-2.025, 12, -9.19785], "size": [2, 2, 2], "pivot": [-1.05693, 12.8315, -8.01133], "rotation": [0, 5, 0], "uv": [50, 24]},
						{"origin": [-2.5, 8.5, -7.5], "size": [5, 6, 4], "inflate": 0.01, "uv": [39, 0]},
						{"origin": [0.025, 12, -9.19785], "size": [2, 2, 2], "pivot": [1.06611, 12.8315, -8.01133], "rotation": [0, -5, 0], "uv": [52, 10]},
						{"origin": [-3.75, 11.5, -8.25], "size": [2, 2, 2], "uv": [8, 49]},
						{"origin": [1.75, 11.5, -8.25], "size": [2, 2, 2], "uv": [16, 39]}
					]
				},
				{
					"name": "braid_right",
					"parent": "head_wool",
					"pivot": [-3, 11.5, -7.5],
					"cubes": [
						{"origin": [-3.5, 10.75, -8], "size": [1, 1, 1], "uv": [0, 39]},
						{"origin": [-4, 9, -8.5], "size": [2, 2, 2], "uv": [0, 49]}
					]
				},
				{
					"name": "braid_middle_right",
					"parent": "braid_right",
					"pivot": [-3, 9, -7.5],
					"cubes": [
						{"origin": [-3.5, 8.25, -8], "size": [1, 1, 1], "uv": [0, 41]},
						{"origin": [-4, 6.5, -8.5], "size": [2, 2, 2], "uv": [36, 48]}
					]
				},
				{
					"name": "braid_bottom_right",
					"parent": "braid_middle_right",
					"pivot": [-3, 6.5, -7.5],
					"cubes": [
						{"origin": [-3.5, 5.75, -8], "size": [1, 1, 1], "uv": [0, 43]},
						{"origin": [-4, 4, -8.5], "size": [2, 2, 2], "uv": [28, 48]},
						{"origin": [-4, 3.75, -8.5], "size": [2, 1, 0], "pivot": [-3, 4.75, -8.5], "rotation": [-12.5, 0, 0], "uv": [0, 61]},
						{"origin": [-4, 3.75, -8.5], "size": [0, 1, 2], "pivot": [-4, 4.75, -7.5], "rotation": [0, 0, 12.5], "uv": [0, 60]},
						{"origin": [-2, 3.75, -8.5], "size": [0, 1, 2], "pivot": [-2, 4.75, -7.5], "rotation": [0, 0, -12.5], "uv": [0, 61]},
						{"origin": [-4, 3.75, -6.5], "size": [2, 1, 0], "pivot": [-3, 4.75, -6.5], "rotation": [12.5, 0, 0], "uv": [0, 60]}
					]
				},
				{
					"name": "braid_left",
					"parent": "head_wool",
					"pivot": [3, 11.5, -7.5],
					"cubes": [
						{"origin": [2.5, 10.75, -8], "size": [1, 1, 1], "uv": [26, 26]},
						{"origin": [2, 9, -8.5], "size": [2, 2, 2], "uv": [48, 30]}
					]
				},
				{
					"name": "braid_middle_left",
					"parent": "braid_left",
					"pivot": [3, 9, -7.5],
					"cubes": [
						{"origin": [2.5, 8.25, -8], "size": [1, 1, 1], "uv": [26, 28]},
						{"origin": [2, 6.5, -8.5], "size": [2, 2, 2], "uv": [32, 39]}
					]
				},
				{
					"name": "braid_bottom_left",
					"parent": "braid_middle_left",
					"pivot": [3, 6.5, -7.5],
					"cubes": [
						{"origin": [2.5, 5.75, -8], "size": [1, 1, 1], "uv": [26, 30]},
						{"origin": [2, 4, -8.5], "size": [2, 2, 2], "uv": [0, 8]},
						{"origin": [2, 3.75, -8.5], "size": [2, 1, 0], "pivot": [3, 4.75, -8.5], "rotation": [-12.5, 0, 0], "uv": [4, 61], "mirror": true},
						{"origin": [2, 3.75, -8.5], "size": [0, 1, 2], "pivot": [2, 4.75, -7.5], "rotation": [0, 0, 12.5], "uv": [4, 61], "mirror": true},
						{"origin": [4, 3.75, -8.5], "size": [0, 1, 2], "pivot": [4, 4.75, -7.5], "rotation": [0, 0, -12.5], "uv": [4, 60], "mirror": true},
						{"origin": [2, 3.75, -6.5], "size": [2, 1, 0], "pivot": [3, 4.75, -6.5], "rotation": [12.5, 0, 0], "uv": [4, 60], "mirror": true}
					]
				},
				{
					"name": "ear_left",
					"parent": "head",
					"pivot": [2.5, 11.75, -6.5],
					"rotation": [0, 0, 15],
					"cubes": [
						{"origin": [2.25, 10, -6.5], "size": [4, 2, 0], "uv": [48, 34]}
					]
				},
				{
					"name": "ear_right",
					"parent": "head",
					"pivot": [-2.5, 11.75, -6.5],
					"rotation": [0, 0, -15],
					"cubes": [
						{"origin": [-6.25, 10, -6.5], "size": [4, 2, 0], "uv": [39, 10]}
					]
				},
				{
					"name": "leg_front_right",
					"parent": "body",
					"pivot": [2.25, 8.5, -3],
					"cubes": [
						{"origin": [0.75, 5, -4.5], "size": [3, 5, 3], "uv": [0, 0]}
					]
				},
				{
					"name": "leg_front_right2",
					"parent": "leg_front_right",
					"pivot": [2.25, 6, -3.75],
					"cubes": [
						{"origin": [1.25, 1.25, -3.75], "size": [2, 4, 2], "uv": [18, 26]}
					]
				},
				{
					"name": "leg_front_right3",
					"parent": "leg_front_right2",
					"pivot": [2.25, 1.5, -2.75],
					"cubes": [
						{"origin": [1.25, 0, -4], "size": [2, 2, 2], "inflate": 0.01, "uv": [14, 52]}
					]
				},
				{
					"name": "leg_front_left",
					"parent": "body",
					"pivot": [-2.25, 8.5, -3],
					"cubes": [
						{"origin": [-3.75, 5, -4.5], "size": [3, 5, 3], "uv": [47, 45]}
					]
				},
				{
					"name": "leg_front_left2",
					"parent": "leg_front_left",
					"pivot": [-2.25, 5, -3.75],
					"cubes": [
						{"origin": [-3.25, 1.25, -3.75], "size": [2, 4, 2], "uv": [42, 26]}
					]
				},
				{
					"name": "leg_front_left3",
					"parent": "leg_front_left2",
					"pivot": [-2.25, 1.5, -2.75],
					"cubes": [
						{"origin": [-3.25, 0, -4], "size": [2, 2, 2], "inflate": 0.01, "uv": [52, 14]}
					]
				},
				{
					"name": "leg_back_right",
					"parent": "body",
					"pivot": [2.25, 8.5, 3.5],
					"cubes": [
						{"origin": [0.75, 5, 1.5], "size": [3, 5, 4], "uv": [22, 39]}
					]
				},
				{
					"name": "leg_back_right2",
					"parent": "leg_back_right",
					"pivot": [2.25, 5, 5],
					"cubes": [
						{"origin": [1.25, 1.25, 3.75], "size": [2, 4, 2], "uv": [46, 37]}
					]
				},
				{
					"name": "leg_back_right3",
					"parent": "leg_back_right2",
					"pivot": [2.25, 1.5, 4.75],
					"cubes": [
						{"origin": [1.25, 0, 3.5], "size": [2, 2, 2], "inflate": 0.01, "uv": [52, 18]}
					]
				},
				{
					"name": "leg_back_left",
					"parent": "body",
					"pivot": [-2.25, 8.5, 3.5],
					"cubes": [
						{"origin": [-3.75, 5, 1.5], "size": [3, 5, 4], "uv": [36, 39]}
					]
				},
				{
					"name": "leg_back_left2",
					"parent": "leg_back_left",
					"pivot": [-2.25, 5, 5],
					"cubes": [
						{"origin": [-3.25, 1.25, 3.75], "size": [2, 4, 2], "uv": [20, 48]}
					]
				},
				{
					"name": "leg_back_left3",
					"parent": "leg_back_left2",
					"pivot": [-2.25, 1.5, 4.75],
					"cubes": [
						{"origin": [-3.25, 0, 3.5], "size": [2, 2, 2], "inflate": 0.01, "uv": [34, 52]}
					]
				}
			]
		}
	]
}